task4/top.vcd
$version Generated by VerilatedVcd $end
$date Tue Nov  8 17:18:30 2022 $end
$timescale 1ps $end

 $scope module TOP $end
  $var wire 12 ' bcd [11:0] $end
  $var wire  1 # clk $end
  $var wire  1 % en $end
  $var wire  1 $ rst $end
  $var wire  8 & v [7:0] $end
  $scope module top $end
   $var wire 32 * WIDTH [31:0] $end
   $var wire 12 ' bcd [11:0] $end
   $var wire  1 # clk $end
   $var wire  8 ( count [7:0] $end
   $var wire  1 % en $end
   $var wire  1 $ rst $end
   $var wire  8 & v [7:0] $end
   $scope module myCounter $end
    $var wire 32 * WIDTH [31:0] $end
    $var wire  1 # clk $end
    $var wire  8 ( count [7:0] $end
    $var wire  1 % en $end
    $var wire  1 $ rst $end
   $upscope $end
   $scope module myDecoder $end
    $var wire 12 ' BCD [11:0] $end
    $var wire 32 + i [31:0] $end
    $var wire 20 ) result [19:0] $end
    $var wire  8 ( x [7:0] $end
   $upscope $end
  $upscope $end
 $upscope $end
$enddefinitions $end


#0
1#
1$
0%
b00000000 &
b000000000000 '
b00000000 (
b00000000000000000000 )
b00000000000000000000000000001000 *
b00000000000000000000000000001000 +
#1
0#
#4
1#
0$
#5
0#
#8
1#
#9
0#
#12
1#
#13
0#
#16
1#
#17
0#
#20
1#
#21
0#
#24
1#
#25
0#
#28
1#
#29
0#
#32
1#
#33
0#
#36
1#
#37
0#
#40
1#
#41
0#
#44
1#
#45
0#
#48
1#
#49
0#
#52
1#
#53
0#
#56
1#
#57
0#
#60
1#
#61
0#
#64
1#
#65
0#
#68
1#
#69
0#
#72
1#
#73
0#
#76
1#
#77
0#
#80
1#
#81
0#
#84
1#
#85
0#
#88
1#
#89
0#
#92
1#
#93
0#
#96
1#
#97
0#
#100
1#
#101
0#
#104
1#
#105
0#
#108
1#
#109
0#
#112
1#
#113
0#
#116
1#
#117
0#
#120
1#
#121
0#
#124
1#
#125
0#
#128
1#
#129
0#
#132
1#
#133
0#
#136
1#
#137
0#
#140
1#
#141
0#
#144
1#
#145
0#
#148
1#
#149
0#
#152
1#
#153
0#
#156
1#
#157
0#
#160
1#
#161
0#
#164
1#
#165
0#
#168
1#
#169
0#
#172
1#
#173
0#
#176
1#
#177
0#
#180
1#
#181
0#
#184
1#
#185
0#
#188
1#
#189
0#
#192
1#
#193
0#
#196
1#
#197
0#
#200
1#
#201
0#
#204
1#
#205
0#
#208
1#
#209
0#
#212
1#
#213
0#
#216
1#
#217
0#
#220
1#
#221
0#
#224
1#
#225
0#
#228
1#
#229
0#
#232
1#
#233
0#
#236
1#
#237
0#
#240
1#
#241
0#
#244
1#
#245
0#
#248
1#
#249
0#
#252
1#
#253
0#
#256
1#
#257
0#
#260
1#
#261
0#
#264
1#
#265
0#
#268
1#
#269
0#
#272
1#
#273
0#
#276
1#
#277
0#
#280
1#
#281
0#
#284
1#
#285
0#
#288
1#
#289
0#
#292
1#
#293
0#
#296
1#
#297
0#
#300
1#
#301
0#
#304
1#
#305
0#
#308
1#
#309
0#
#312
1#
#313
0#
#316
1#
#317
0#
#320
1#
#321
0#
#324
1#
#325
0#
#328
1#
#329
0#
#332
1#
#333
0#
#336
1#
#337
0#
#340
1#
#341
0#
#344
1#
1%
#345
0#
#348
1#
b000000000001 '
b00000001 (
b00000000000100000000 )
#349
0#
#352
1#
b000000000010 '
b00000010 (
b00000000001000000000 )
#353
0#
#356
1#
b000000000011 '
b00000011 (
b00000000001100000000 )
#357
0#
#360
1#
b000000000100 '
b00000100 (
b00000000010000000000 )
#361
0#
#364
1#
b000000000101 '
b00000101 (
b00000000010100000000 )
#365
0#
#368
1#
b000000000110 '
b00000110 (
b00000000011000000000 )
#369
0#
#372
1#
b000000000111 '
b00000111 (
b00000000011100000000 )
#373
0#
#376
1#
b000000001000 '
b00001000 (
b00000000100000000000 )
#377
0#
#380
1#
b000000001001 '
b00001001 (
b00000000100100000000 )
#381
0#
#384
1#
b000000010000 '
b00001010 (
b00000001000000000000 )
#385
0#
#388
1#
b000000010001 '
b00001011 (
b00000001000100000000 )
#389
0#
#392
1#
b000000010010 '
b00001100 (
b00000001001000000000 )
#393
0#
#396
1#
b000000010011 '
b00001101 (
b00000001001100000000 )
#397
0#
#400
1#
b000000010100 '
b00001110 (
b00000001010000000000 )
#401
0#
#404
1#
b000000010101 '
b00001111 (
b00000001010100000000 )
#405
0#
#408
1#
b000000010110 '
b00010000 (
b00000001011000000000 )
#409
0#
#412
1#
b000000010111 '
b00010001 (
b00000001011100000000 )
#413
0#
#416
1#
b000000011000 '
b00010010 (
b00000001100000000000 )
#417
0#
#420
1#
b000000011001 '
b00010011 (
b00000001100100000000 )
#421
0#
#424
1#
b000000100000 '
b00010100 (
b00000010000000000000 )
#425
0#
#428
1#
b000000100001 '
b00010101 (
b00000010000100000000 )
#429
0#
#432
1#
b000000100010 '
b00010110 (
b00000010001000000000 )
#433
0#
#436
1#
b000000100011 '
b00010111 (
b00000010001100000000 )
#437
0#
#440
1#
b000000100100 '
b00011000 (
b00000010010000000000 )
#441
0#
#444
1#
b000000100101 '
b00011001 (
b00000010010100000000 )
#445
0#
#448
1#
b000000100110 '
b00011010 (
b00000010011000000000 )
#449
0#
#452
1#
b000000100111 '
b00011011 (
b00000010011100000000 )
#453
0#
#456
1#
0%
b000000101000 '
b00011100 (
b00000010100000000000 )
